['NorlaneU', 5],
['Belmont12', 8],
['Belmont15', 3],
['Belmont14', 6],
['Grovedale15', 4],
['Grovedale14', 7],
['Corio12', 21],
['Corio13', 10],
['Corio14', 7],
['Corio15', 6],
['Grovedale13', 6],
['Grovedale12', 10],
['Lara10', 11],
['Belmont11', 15],
['Belmont10', 13],
['Lara15', 4],
['Lara14', 14],
['Lara13', 7],
['Lara12', 16],
['Lara11', 3],
['CorioU', 4],
['GrovedaleU', 3],
['Grovedale11', 7],
['BelmontU', 2],
['Corio10', 19],
['Corio11', 14],
['LaraU', 2],
['Norlane10', 17],
['Grovedale10', 6],
['Norlane15', 3],
['Norlane14', 10],
['Norlane11', 9],
['Belmont13', 4],
['Norlane13', 4],
['Norlane12', 10],
