North Shore,58
Geelong,507
Anakie,126
Belmont,2085
Armstrong Creek,331
Ocean Grove,2547
Grovedale,2231
Norlane,1143
Lara,2905
East Geelong,628
Waurn Ponds,603
Newcomb,691
Marcus Hill,35
Clifton Springs,1510
Lovely Banks,348
Point Lonsdale,178
Manifold Heights,363
Bellarine,46
Avalon,74
St Leonards,476
Charlemont,89
Bell Post Hill,604
Moorabool,26
Newtown,1290
Rippleside,117
Batesford,53
Leopold,2185
Hamlyn Heights,829
Curlewis,180
Mannerim,36
South Geelong,142
Staughton Vale,18
Connewarre,86
Breamlea,26
Geelong West,885
Wallington,341
North Geelong,304
Corio,2342
Drysdale,832
Herne Hill,527
Moolap,303
Mount Duneed,73
Swan Bay,11
Whittington,710
St Albans Park,884
Indented Head,195
Ceres,64
Barwon Heads,680
Marshall,230
Highton,2406
Drumcondra,95
Thomson,277
Breakwater,178
Fyansford,42
Bell Park,578
Little River,124
Wandana Heights,311
Balliang,27
Portarlington,592
