chickens & guinea pig,1
rabbits,6
livestock,4
people,1
cat & sheep,1
guinea pig,1
rooster,1
chicken,9
lambs,3
budgies,1
sheep,38
horse,2
alpaca,3
sheep & alpacas,1
swan,1
foal,1
guinea pigs,3
dog & person,24
goat,1
horses,1
lamb,3
dogs,7
kangaroo,1
U,10
rabbit,6
kitten,1
ducks,1
cat & person,2
calves,1
car,1
chickens,32
dog,325
cat,56
person,232
person & chickens,1
chickens & duck,1
wallaby,1
